Extract estimated diversification rates from a multistate HiSSE model (MuSSE, MuHiSSE or CID) — m_diversification_rates • gghisse
…
# CID8 model
m_diversification_rates(model_fit = diatoms$cid8, states=States)

#> # A tibble: 32 x 6
#>    State   Turnover Extinction_fracti…  Speciation  Extinction Net_diversificat…
#>    <chr>      <dbl>              <dbl>       <dbl>       <dbl>             <dbl>
#>  1 mp1      1.90e-1              0.841     1.03e-1     8.69e-2    0.0164        
#>  2 mb1      1.90e-1              0.841     1.03e-1     8.69e-2    0.0164        
#>  3 fp1      1.90e-1              0.841     1.03e-1     8.69e-2    0.0164        
#>  4 fb1      1.90e-1              0.841     1.03e-1     8.69e-2    0.0164        
#>  5 mp2      7.58e-8              0.841     4.12e-8     3.46e-8    0.00000000653 
#>  6 mb2      7.58e-8              0.841     4.12e-8     3.46e-8    0.00000000653 
#>  7 fp2      7.58e-8              0.841     4.12e-8     3.46e-8    0.00000000653 
#>  8 fb2      7.58e-8              0.841     4.12e-8     3.46e-8    0.00000000653 
#>  9 mp3      1.03e-8              0.841     5.60e-9     4.71e-9    0.000000000888
#> 10 mb3      1.03e-8              0.841     5.60e-9     4.71e-9    0.000000000888
#> # … with 22 more rows
…
